<svg xmlns="http://www.w3.org/2000/svg" width="247" height="72" viewBox="0 0 247 72">
    <path d="M67.942 28.972a7.076 7.076 0 00-2.132.331l-18.238 5.748a.97.97 0 000 1.854l18.238 5.748a7.021 7.021 0 102.132-13.681z" fill="#facb52"/>
    <path d="M57.997 12.469a6.965 6.965 0 00-1.528 1.52L45.102 29.354a.97.97 0 001.079 1.5l18.166-6.061a6.883 6.883 0 001.916-.984 7.024 7.024 0 00-8.269-11.354z" fill="#ea8d42"/>
    <path d="M40.26 4.925a6.961 6.961 0 00-.36 2.127l-.158 19.108a.971.971 0 001.765.571l11.116-15.552A7.023 7.023 0 1040.26 4.925z" fill="#44b9c0"/>
    <path d="M21.447 9.258a6.975 6.975 0 00.971 1.926L33.53 26.735a.971.971 0 001.765-.571l-.154-19.109a7.024 7.024 0 10-13.705 2.21z" fill="#82a6d7"/>
    <path d="M8.792 23.802a6.883 6.883 0 001.916.984l18.141 6.053a.97.97 0 001.079-1.5L18.56 13.971a7.023 7.023 0 10-9.79 9.831z" fill="#93569d"/>
    <path d="M7.11 43.005a7.076 7.076 0 002.132-.331l18.237-5.747a.97.97 0 000-1.854L9.242 29.325a7.021 7.021 0 10-2.132 13.68z" fill="#73b257"/>
    <path d="M17.05 59.531a6.965 6.965 0 001.528-1.52l11.368-15.365a.967.967 0 00-1.079-1.498L10.708 47.19a7.021 7.021 0 106.342 12.34z" fill="#f1585c"/>
    <path d="M34.806 67.076a7.073 7.073 0 00.36-2.127l.158-19.109a.971.971 0 00-1.765-.571L22.443 60.821a7.023 7.023 0 1012.363 6.255z" fill="#63bddd"/>
    <path d="M53.601 62.729a6.975 6.975 0 00-.971-1.926L41.518 45.251a.971.971 0 00-1.765.571l.155 19.109a7.024 7.024 0 1013.7-2.209z" fill="#dd4e9c"/>
    <path d="M66.256 48.179a6.98 6.98 0 00-1.916-.984l-18.141-6.057a.967.967 0 00-1.079 1.5l11.368 15.37a7.023 7.023 0 109.786-9.836z" fill="#4b6ab2"/>
    <path d="M108.972 36.974c0 2.806-2.157 3.557-3.84 3.557a3.433 3.433 0 01-3.555-3.79V25.517h-7.442v11.457c0 6.783 2.854 10.76 8.7 10.76 1.92 0 5.393-1.078 6.133-3.837v3.42h7.442v-21.8h-7.438zM149.359 24.957a7.657 7.657 0 00-6.507 4.627c-1.169-2.992-3.559-4.627-7.816-4.627-1.92 0-4.821 1.214-5.569 3.973v-3.413h-7.445v21.8h7.445v-11.46c0-2.806 1.589-3.7 3.275-3.7a3.434 3.434 0 013.555 3.79v11.37h7.5v-11.46c0-2.806 1.593-3.7 3.279-3.7a3.434 3.434 0 013.555 3.79v11.37h7.442v-11.6c-.011-6.787-2.117-10.76-8.714-10.76zM173.686 47.733a11.786 11.786 0 01-8.079-3.087 10.7 10.7 0 01-2.537-3.582 11.692 11.692 0 01-.945-4.697 11.716 11.716 0 01.947-4.7 10.785 10.785 0 012.542-3.6 11.75 11.75 0 018.072-3.11 11.959 11.959 0 018.186 3.127 10.811 10.811 0 012.563 3.6 11.583 11.583 0 01.953 4.684 11.537 11.537 0 01-.953 4.677 10.737 10.737 0 01-2.563 3.585 12 12 0 01-8.186 3.103zm0-15.9a4.522 4.522 0 104.539 4.534 4.544 4.544 0 00-4.539-4.538zM198.909 17.707h-7.348v7.81h-3.98v5.471h3.98v16.319h7.348V30.989h4.587v-5.472h-4.587v-7.81zM207.142 25.517h7.442v21.796h-7.442zM210.841 14.057a4.35 4.35 0 00-4.494 4.21 4.391 4.391 0 004.494 4.261 4.349 4.349 0 004.447-4.257 4.281 4.281 0 00-4.447-4.214zM222.399 24.72v.8h-4.073v5.471h4.073v16.326h7.442V30.989h4.585v-5.472h-4.585v-.8c.047-2.479 1.309-3.593 3.041-3.593h2.808v-7.067h-2.808c-6.399 0-10.483 3.6-10.483 10.663zM241.697 45.27h-.625v-4.743h1.8a1.359 1.359 0 011.438 1.48 1.347 1.347 0 01-1.261 1.466l1.257 1.795h-.75l-1.237-1.8h-.621v1.8zm.022-4.157v1.8l.992.007c.635 0 .971-.312.971-.9a.809.809 0 00-.791-.9z" fill="#435771"/>
    <path d="M242.531 47.352A4.466 4.466 0 11247 42.887a4.472 4.472 0 01-4.469 4.465zm0-8.213a3.747 3.747 0 103.75 3.748 3.753 3.753 0 00-3.75-3.748z" fill="#435771"/>
</svg>
